*********************************************************************************************************
*	TER - Cyclic bandwidth 										*
*	Ce fichier contient les résultats de l'application de l'algorithme 1 aux étiquetages NILS	*
*	qui vérifient les conditions d'application de l'algorithme 1, en testant tous les sommets 	*
*	du graphe comme sommet de départ.								*
*********************************************************************************************************

function tous_sommets_depart(G,phi)
	for i in 1:G.n
       		phi_prime = algorithme_1(G,phi,i)
       	end
end
tous_sommets_depart (generic function with 1 method)

tous_sommets_depart(pores_1,liste_phi[5])
B = 7 Bc = 7
B = 7 Bc = 7
B = 7 Bc = 7
B = 7 Bc = 7
B = 7 Bc = 7
B = 7 Bc = 7
B = 7 Bc = 7
B = 7 Bc = 7
B = 7 Bc = 7
B = 7 Bc = 7
B = 7 Bc = 7
B = 7 Bc = 7
B = 7 Bc = 7
B = 7 Bc = 7
B = 7 Bc = 7
B = 7 Bc = 7
B = 7 Bc = 7
B = 7 Bc = 7
B = 7 Bc = 7
B = 7 Bc = 7
B = 7 Bc = 7
B = 7 Bc = 7
B = 7 Bc = 7
B = 7 Bc = 7
B = 7 Bc = 7
B = 7 Bc = 7
B = 7 Bc = 7
B = 7 Bc = 7
B = 7 Bc = 7
B = 7 Bc = 7

tous_sommets_depart(will57,liste_phi[11])
B = 6 Bc = 6
B = 6 Bc = 6
B = 6 Bc = 6
B = 6 Bc = 6
B = 6 Bc = 6
B = 6 Bc = 6
B = 6 Bc = 6
B = 6 Bc = 6
B = 6 Bc = 6
B = 6 Bc = 6
B = 6 Bc = 6
B = 6 Bc = 6
B = 6 Bc = 6
B = 6 Bc = 6
B = 6 Bc = 6
B = 6 Bc = 6
B = 6 Bc = 6
B = 6 Bc = 6
B = 6 Bc = 6
B = 6 Bc = 6
B = 6 Bc = 6
B = 6 Bc = 6
B = 6 Bc = 6
B = 6 Bc = 6
B = 6 Bc = 6
B = 6 Bc = 6
B = 6 Bc = 6
B = 6 Bc = 6
B = 6 Bc = 6
B = 6 Bc = 6
B = 6 Bc = 6
B = 6 Bc = 6
B = 6 Bc = 6
B = 6 Bc = 6
B = 6 Bc = 6
B = 6 Bc = 6
B = 6 Bc = 6
B = 6 Bc = 6
B = 6 Bc = 6
B = 6 Bc = 6
B = 6 Bc = 6
B = 6 Bc = 6
B = 6 Bc = 6
B = 6 Bc = 6
B = 6 Bc = 6
B = 6 Bc = 6
B = 6 Bc = 6
B = 6 Bc = 6
B = 6 Bc = 6
B = 6 Bc = 6
B = 6 Bc = 6
B = 6 Bc = 6
B = 6 Bc = 6
B = 6 Bc = 6
B = 6 Bc = 6
B = 6 Bc = 6
B = 6 Bc = 6

tous_sommets_depart(ash85,liste_phi[13])
B = 9 Bc = 9
B = 9 Bc = 9
B = 9 Bc = 9
B = 9 Bc = 9
B = 9 Bc = 9
B = 9 Bc = 9
B = 9 Bc = 9
B = 9 Bc = 9
B = 9 Bc = 9
B = 9 Bc = 9
B = 9 Bc = 9
B = 9 Bc = 9
B = 9 Bc = 9
B = 9 Bc = 9
B = 9 Bc = 9
B = 9 Bc = 9
B = 9 Bc = 9
B = 9 Bc = 9
B = 9 Bc = 9
B = 9 Bc = 9
B = 9 Bc = 9
B = 9 Bc = 9
B = 9 Bc = 9
B = 9 Bc = 9
B = 9 Bc = 9
B = 9 Bc = 9
B = 9 Bc = 9
B = 9 Bc = 9
B = 9 Bc = 9
B = 9 Bc = 9
B = 9 Bc = 9
B = 9 Bc = 9
B = 9 Bc = 9
B = 9 Bc = 9
B = 9 Bc = 9
B = 9 Bc = 9
B = 9 Bc = 9
B = 9 Bc = 9
B = 9 Bc = 9
B = 9 Bc = 9
B = 9 Bc = 9
B = 9 Bc = 9
B = 9 Bc = 9
B = 9 Bc = 9
B = 9 Bc = 9
B = 9 Bc = 9
B = 9 Bc = 9
B = 9 Bc = 9
B = 9 Bc = 9
B = 9 Bc = 9
B = 9 Bc = 9
B = 9 Bc = 9
B = 9 Bc = 9
B = 9 Bc = 9
B = 9 Bc = 9
B = 9 Bc = 9
B = 9 Bc = 9
B = 9 Bc = 9
B = 9 Bc = 9
B = 9 Bc = 9
B = 9 Bc = 9
B = 9 Bc = 9
B = 9 Bc = 9
B = 9 Bc = 9
B = 9 Bc = 9
B = 9 Bc = 9
B = 9 Bc = 9
B = 9 Bc = 9
B = 9 Bc = 9
B = 9 Bc = 9
B = 9 Bc = 9
B = 9 Bc = 9
B = 9 Bc = 9
B = 9 Bc = 9
B = 9 Bc = 9
B = 9 Bc = 9
B = 9 Bc = 9
B = 9 Bc = 9
B = 9 Bc = 9
B = 9 Bc = 9
B = 9 Bc = 9
B = 9 Bc = 9
B = 9 Bc = 9
B = 9 Bc = 9
B = 9 Bc = 9

tous_sommets_depart(nos4,liste_phi[14])
B = 10 Bc = 10
B = 10 Bc = 10
B = 10 Bc = 10
B = 10 Bc = 10
B = 10 Bc = 10
B = 10 Bc = 10
B = 10 Bc = 10
B = 10 Bc = 10
B = 10 Bc = 10
B = 10 Bc = 10
B = 10 Bc = 10
B = 10 Bc = 10
B = 10 Bc = 10
B = 10 Bc = 10
B = 10 Bc = 10
B = 10 Bc = 10
B = 10 Bc = 10
B = 10 Bc = 10
B = 10 Bc = 10
B = 10 Bc = 10
B = 10 Bc = 10
B = 10 Bc = 10
B = 10 Bc = 10
B = 10 Bc = 10
B = 10 Bc = 10
B = 10 Bc = 10
B = 10 Bc = 10
B = 10 Bc = 10
B = 10 Bc = 10
B = 10 Bc = 10
B = 10 Bc = 10
B = 10 Bc = 10
B = 10 Bc = 10
B = 10 Bc = 10
B = 10 Bc = 10
B = 10 Bc = 10
B = 10 Bc = 10
B = 10 Bc = 10
B = 10 Bc = 10
B = 10 Bc = 10
B = 10 Bc = 10
B = 10 Bc = 10
B = 10 Bc = 10
B = 10 Bc = 10
B = 10 Bc = 10
B = 10 Bc = 10
B = 10 Bc = 10
B = 10 Bc = 10
B = 10 Bc = 10
B = 10 Bc = 10
B = 10 Bc = 10
B = 10 Bc = 10
B = 10 Bc = 10
B = 10 Bc = 10
B = 10 Bc = 10
B = 10 Bc = 10
B = 10 Bc = 10
B = 10 Bc = 10
B = 10 Bc = 10
B = 10 Bc = 10
B = 10 Bc = 10
B = 10 Bc = 10
B = 10 Bc = 10
B = 10 Bc = 10
B = 10 Bc = 10
B = 10 Bc = 10
B = 10 Bc = 10
B = 10 Bc = 10
B = 10 Bc = 10
B = 10 Bc = 10
B = 10 Bc = 10
B = 10 Bc = 10
B = 10 Bc = 10
B = 10 Bc = 10
B = 10 Bc = 10
B = 10 Bc = 10
B = 10 Bc = 10
B = 10 Bc = 10
B = 10 Bc = 10
B = 10 Bc = 10
B = 10 Bc = 10
B = 10 Bc = 10
B = 10 Bc = 10
B = 10 Bc = 10
B = 10 Bc = 10
B = 10 Bc = 10
B = 10 Bc = 10
B = 10 Bc = 10
B = 10 Bc = 10
B = 10 Bc = 10
B = 10 Bc = 10
B = 10 Bc = 10
B = 10 Bc = 10
B = 10 Bc = 10
B = 10 Bc = 10
B = 10 Bc = 10
B = 10 Bc = 10
B = 10 Bc = 10
B = 10 Bc = 10
B = 10 Bc = 10

tous_sommets_depart(dwt_234,liste_phi[15])
B = 11 Bc = 11
B = 11 Bc = 11
B = 11 Bc = 11
B = 11 Bc = 11
B = 11 Bc = 11
B = 11 Bc = 11
B = 11 Bc = 11
B = 11 Bc = 11
B = 11 Bc = 11
B = 11 Bc = 11
B = 11 Bc = 11
B = 11 Bc = 11
B = 11 Bc = 11
B = 11 Bc = 11
B = 11 Bc = 11
B = 11 Bc = 11
B = 11 Bc = 11
B = 11 Bc = 11
B = 11 Bc = 11
B = 11 Bc = 11
B = 11 Bc = 11
B = 11 Bc = 11
B = 11 Bc = 11
B = 11 Bc = 11
B = 11 Bc = 11
B = 11 Bc = 11
B = 11 Bc = 11
B = 11 Bc = 11
B = 11 Bc = 11
B = 11 Bc = 11
B = 11 Bc = 11
B = 11 Bc = 11
B = 11 Bc = 11
B = 11 Bc = 11
B = 11 Bc = 11
B = 11 Bc = 11
B = 11 Bc = 11
B = 11 Bc = 11
B = 11 Bc = 11
B = 11 Bc = 11
B = 11 Bc = 11
B = 11 Bc = 11
B = 11 Bc = 11
B = 11 Bc = 11
B = 11 Bc = 11
B = 11 Bc = 11
B = 11 Bc = 11
B = 11 Bc = 11
B = 11 Bc = 11
B = 11 Bc = 11
B = 11 Bc = 11
B = 11 Bc = 11
B = 11 Bc = 11
B = 11 Bc = 11
B = 11 Bc = 11
B = 11 Bc = 11
B = 11 Bc = 11
B = 11 Bc = 11
B = 11 Bc = 11
B = 11 Bc = 11
B = 11 Bc = 11
B = 11 Bc = 11
B = 11 Bc = 11
B = 11 Bc = 11
B = 11 Bc = 11
B = 11 Bc = 11
B = 11 Bc = 11
B = 11 Bc = 11
B = 11 Bc = 11
B = 11 Bc = 11
B = 11 Bc = 11
B = 11 Bc = 11
B = 11 Bc = 11
B = 11 Bc = 11
B = 11 Bc = 11
B = 11 Bc = 11
B = 11 Bc = 11
B = 11 Bc = 11
B = 11 Bc = 11
B = 11 Bc = 11
B = 11 Bc = 11
B = 11 Bc = 11
B = 11 Bc = 11
B = 11 Bc = 11
B = 11 Bc = 11
B = 11 Bc = 11
B = 11 Bc = 11
B = 11 Bc = 11
B = 11 Bc = 11
B = 11 Bc = 11
B = 11 Bc = 11
B = 11 Bc = 11
B = 11 Bc = 11
B = 11 Bc = 11
B = 11 Bc = 11
B = 11 Bc = 11
B = 11 Bc = 11
B = 11 Bc = 11
B = 11 Bc = 11
B = 11 Bc = 11
B = 11 Bc = 11
B = 11 Bc = 11
B = 11 Bc = 11
B = 11 Bc = 11
B = 11 Bc = 11
B = 11 Bc = 11
B = 11 Bc = 11
B = 11 Bc = 11
B = 11 Bc = 11
B = 11 Bc = 11
B = 11 Bc = 11
B = 11 Bc = 11
B = 11 Bc = 11
B = 11 Bc = 11
B = 11 Bc = 11
B = 11 Bc = 11
B = 11 Bc = 11